{
    "description": "Een lijst van alle monumenten",
    "organization_name": "Gemeente Amsterdam",
    "service_name": "Monumenten",
    "api_url": "https://api.data.amsterdam.nl/monumenten/",
    "api_type": "REST/JSON",
    "specification_url": "https://api.data.amsterdam.nl/monumenten/docs/api-docs/monumenten/?format=openapi",
    "documentation_url": "https://api.data.amsterdam.nl/monumenten/",
    "tags": ["gemeente", "amsterdam", "monumenten"],
    "badges": []
}